…
    accumulate, when

Loading required package: iterators
Loading required package: parallel
qs 0.26.3

Attaching package: 'rlang'

The following objects are masked from 'package:purrr':

    %@%, flatten, flatten_chr, flatten_dbl, flatten_int, flatten_lgl,
    flatten_raw, invoke, splice

Linking to GEOS 3.8.0, GDAL 3.0.4, PROJ 6.3.1; sf_use_s2() is TRUE
# A tibble: 2,610 x 4
   variable          type      role      source  
   <chr>             <list>    <chr>     <chr>   
 1 site_id           <chr [3]> predictor original
 2 time              <chr [1]> predictor original
 3 OTH_HMSWL_0_00000 <chr [2]> predictor original
 4 OTH_HMSWM_0_00000 <chr [2]> predictor original
 5 OTH_HMSWH_0_00000 <chr [2]> predictor original
 6 LDU_TUNCL_0_01000 <chr [2]> predictor original
 7 LDU_TWATR_0_01000 <chr [2]> predictor original
 8 LDU_TDVOS_0_01000 <chr [2]> predictor original
 9 LDU_TDVLO_0_01000 <chr [2]> predictor original
10 LDU_TDVMI_0_01000 <chr [2]> predictor original
# i 2,600 more rows
…
